^C:\USERS\WILSON\DESKTOP\PROJECTS\CLIENTLICENSEVALIDATOR\AESLIB\AES.C
C:\USERS\WILSON\DESKTOP\PROJECTS\CLIENTLICENSEVALIDATOR\AESLIB\DEBUG\AESLIB.PDB
C:\USERS\WILSON\DESKTOP\PROJECTS\CLIENTLICENSEVALIDATOR\AESLIB\DEBUG\AESLIB.IDB
C:\USERS\WILSON\DESKTOP\PROJECTS\CLIENTLICENSEVALIDATOR\AESLIB\DEBUG\AES.OBJ
