^C:\USERS\WILSON\DESKTOP\PROJECTS\CLIENTLICENSEVALIDATOR\CONSOLE\DEBUG\CONSOLE.OBJ
C:\USERS\WILSON\DESKTOP\PROJECTS\CLIENTLICENSEVALIDATOR\CONSOLE\DEBUG\CONSOLE.ILK
C:\USERS\WILSON\DESKTOP\PROJECTS\CLIENTLICENSEVALIDATOR\CONSOLE\DEBUG\CONSOLE.EXE
C:\USERS\WILSON\DESKTOP\PROJECTS\CLIENTLICENSEVALIDATOR\CONSOLE\DEBUG\CONSOLE.PDB
