^C:\USERS\WILSON\DESKTOP\PROJECTS\CLIENTLICENSEVALIDATOR\HDLIB\HDSERIALNUMBER.CPP
C:\USERS\WILSON\DESKTOP\PROJECTS\CLIENTLICENSEVALIDATOR\HDLIB\RELEASE\HDLIB.PDB
C:\USERS\WILSON\DESKTOP\PROJECTS\CLIENTLICENSEVALIDATOR\HDLIB\RELEASE\HDSERIALNUMBER.OBJ
