^C:\USERS\WILSON\DESKTOP\PROJECTS\CLIENTLICENSEVALIDATOR\CLIENTLICENSEVALIDATOR\CLIENTLICENSEVALIDATOR.CPP
/c /Zi /nologo /W3 /WX- /Od /Oy- /D WIN32 /D _DEBUG /D _WINDOWS /D _USRDLL /D CLIENTLICENSEVALIDATOR_EXPORTS /D _WINDLL /Gm /EHsc /RTC1 /MDd /GS /fp:precise /Zc:wchar_t /Zc:forScope /Zc:inline /Fo"DEBUG\\" /Fd"DEBUG\VC140.PDB" /Gd /TP /analyze- C:\USERS\WILSON\DESKTOP\PROJECTS\CLIENTLICENSEVALIDATOR\CLIENTLICENSEVALIDATOR\CLIENTLICENSEVALIDATOR.CPP
^C:\USERS\WILSON\DESKTOP\PROJECTS\CLIENTLICENSEVALIDATOR\CLIENTLICENSEVALIDATOR\DLLMAIN.CPP
/c /Zi /nologo /W3 /WX- /Od /Oy- /D WIN32 /D _DEBUG /D _WINDOWS /D _USRDLL /D CLIENTLICENSEVALIDATOR_EXPORTS /D _WINDLL /Gm /EHsc /RTC1 /MDd /GS /fp:precise /Zc:wchar_t /Zc:forScope /Zc:inline /Fo"DEBUG\\" /Fd"DEBUG\VC140.PDB" /Gd /TP /analyze- C:\USERS\WILSON\DESKTOP\PROJECTS\CLIENTLICENSEVALIDATOR\CLIENTLICENSEVALIDATOR\DLLMAIN.CPP
