^C:\USERS\WILSON\DESKTOP\PROJECTS\CLIENTLICENSEVALIDATOR\CLIENTLICENSEVALIDATOR\CLIENTLICENSEVALIDATOR.CPP|C:\USERS\WILSON\DESKTOP\PROJECTS\CLIENTLICENSEVALIDATOR\CLIENTLICENSEVALIDATOR\DLLMAIN.CPP
C:\USERS\WILSON\DESKTOP\PROJECTS\CLIENTLICENSEVALIDATOR\CLIENTLICENSEVALIDATOR\DEBUG\VC140.PDB
C:\USERS\WILSON\DESKTOP\PROJECTS\CLIENTLICENSEVALIDATOR\CLIENTLICENSEVALIDATOR\DEBUG\VC140.IDB
C:\USERS\WILSON\DESKTOP\PROJECTS\CLIENTLICENSEVALIDATOR\CLIENTLICENSEVALIDATOR\DEBUG\CLIENTLICENSEVALIDATOR.OBJ
C:\USERS\WILSON\DESKTOP\PROJECTS\CLIENTLICENSEVALIDATOR\CLIENTLICENSEVALIDATOR\DEBUG\DLLMAIN.OBJ
^C:\USERS\WILSON\DESKTOP\PROJECTS\CLIENTLICENSEVALIDATOR\CLIENTLICENSEVALIDATOR\CLIENTLICENSEVALIDATOR.CPP
C:\USERS\WILSON\DESKTOP\PROJECTS\CLIENTLICENSEVALIDATOR\CLIENTLICENSEVALIDATOR\DEBUG\VC140.PDB
^C:\USERS\WILSON\DESKTOP\PROJECTS\CLIENTLICENSEVALIDATOR\CLIENTLICENSEVALIDATOR\DLLMAIN.CPP
C:\USERS\WILSON\DESKTOP\PROJECTS\CLIENTLICENSEVALIDATOR\CLIENTLICENSEVALIDATOR\DEBUG\VC140.PDB
